Codigos/wave_3_methods.vcd
$date
     Apr 24, 2018       23:12:26
$end

$version
 SystemC 2.3.2-Accellera --- Mar 14 2018 11:20:07
$end

$timescale
     1 ms
$end

$scope module SystemC $end
$var wire    1  aaaaa  clk       $end
$var wire    1  aaaab  sensor       $end
$var wire   32  aaaac  state [31:0]  $end
$var wire    1  aaaad  ativacao       $end
$var wire    1  aaaae  time_complete       $end
$upscope $end
$enddefinitions  $end

$comment
All initial values are dumped below at time 0 sec = 0 timescale units.
$end

$dumpvars
0aaaaa
0aaaab
b10110101011010101110111000110 aaaac
1aaaad
0aaaae
$end

#1
1aaaae

#2
1aaaaa
0aaaae

#3
0aaaaa

#4
1aaaaa
1aaaae

#5
0aaaaa
0aaaae

#6
1aaaaa

#7
0aaaaa
1aaaae

#8
1aaaaa
0aaaae

#9
0aaaaa

#10
1aaaaa
1aaaae

#11
0aaaaa
0aaaae

#12
1aaaaa

#13
0aaaaa
1aaaae

#14
1aaaaa
0aaaae

#15
0aaaaa

#16
1aaaaa
1aaaae

#17
0aaaaa
0aaaae

#18
1aaaaa

#19
0aaaaa
1aaaae

#20
1aaaaa
0aaaae

#21
1aaaab

#22
0aaaaa
1aaaae

#23
1aaaaa
0aaaae

#24
0aaaaa
1aaaae

#25
1aaaaa
0aaaae

#26
0aaaaa
1aaaae

#27
1aaaaa
0aaaae

#28
0aaaaa
1aaaae

#29
1aaaaa
0aaaae

#30
0aaaaa

#31
1aaaaa
1aaaae

#32
0aaaaa
0aaaae

#33
1aaaaa
1aaaae

#34
0aaaaa
0aaaae

#35
1aaaaa
1aaaae

#36
0aaaaa
0aaaae

#37
1aaaaa
1aaaae

#38
0aaaaa
0aaaae

#39
1aaaaa

#40
0aaaaa
1aaaae

#41
1aaaaa
0aaaae

#42
1aaaae

#43
0aaaae

#44
1aaaae

#45
0aaaae

#46
1aaaae

#47
0aaaae

#49
1aaaae

